COVID-19 SIR Model
…
cases_intl_max <- max_counts(cases_intl)
cases_intl_max[order(cases_intl_max$Count, decreasing = TRUE),]

## # A tibble: 188 x 3
##     Days Location         Count
##    <int> <fct>            <int>
##  1   176 US             3576157
##  2   176 Brazil         2012151
##  3   176 India          1003832
##  4   176 Russia          751612
##  5   176 Peru            341586
##  6   176 South Africa    324221
##  7   176 Mexico          324041
##  8   176 Chile           323698
##  9   176 United Kingdom  294116
## 10   176 Iran            267061
## #  with 178 more rows
…
cases_US_max <- max_counts(cases_US)
cases_US_max[order(cases_US_max$Count, decreasing = TRUE),]

## # A tibble: 3,209 x 3
##     Days Location                 Count
##    <int> <fct>                    <int>
##  1   174 New York City, New York 223977
##  2   174 Los Angeles, California 136129
##  3   174 Cook, Illinois           95884
##  4   174 Maricopa, Arizona        81216
##  5   174 Miami-Dade, Florida      67712
##  6   174 Harris, Texas            47369
##  7   174 Nassau, New York         42354
##  8   174 Suffolk, New York        42112
##  9   174 Westchester, New York    35326
## 10   174 Dallas, Texas            34914
## #  with 3,199 more rows
…
cases_LA_max <- max_counts(cases_LA)
cases_LA_max[order(cases_LA_max$Count, decreasing = TRUE),]

## # A tibble: 339 x 3
##     Days Location                            Count
##    <int> <fct>                               <int>
##  1   104 Unincorporated - East Los Angeles    3327
##  2   104 City of South Gate                   2432
##  3   104 Los Angeles - Boyle Heights*         2375
##  4   104 City of Downey                       2349
##  5   104 City of Pomona                       2292
##  6   104 City of El Monte                     2244
##  7   104 City of Compton                      2049
##  8   104 Unincorporated - Castaic*            1822
##  9   104 City of Lynwood*                     1812
## 10   104 Unincorporated - Florence-Firestone  1804
## #  with 329 more rows
…
